<HTML><body background=https://wallpapercave.com/wp/wp2646233.jpg><HEAD></HEAD><BODY><PRE>
<b>FINE</b> || <b>Date: </b>09/05/2019 06:42:38.503 || <b>Local: </b>pt.ipp.isep.dei.project.model.geographicarea.GeographicAreaService.getTypeSensorByName || <b>Message: </b>The Sensor Type humiditywith the unit g/m3 does not yet exist in the Data Base. Please create the SensorType first.
</PRE></BODY></HTML>
<HTML><body background=https://wallpapercave.com/wp/wp2646233.jpg><HEAD></HEAD><BODY><PRE>
<b>FINE</b> || <b>Date: </b>09/05/2019 07:12:58.664 || <b>Local: </b>pt.ipp.isep.dei.project.model.geographicarea.GeographicAreaService.getTypeSensorByName || <b>Message: </b>The Sensor Type humiditywith the unit g/m3 does not yet exist in the Data Base. Please create the SensorType first.
</PRE></BODY></HTML>
<HTML><body background=https://wallpapercave.com/wp/wp2646233.jpg><HEAD></HEAD><BODY><PRE>
<b>FINE</b> || <b>Date: </b>09/05/2019 10:03:17.274 || <b>Local: </b>pt.ipp.isep.dei.project.model.geographicarea.GeographicAreaService.getTypeSensorByName || <b>Message: </b>The Sensor Type humiditywith the unit g/m3 does not yet exist in the Data Base. Please create the SensorType first.
</PRE></BODY></HTML>
<HTML><body background=https://wallpapercave.com/wp/wp2646233.jpg><HEAD></HEAD><BODY><PRE>
<b>FINE</b> || <b>Date: </b>09/05/2019 11:20:49.633 || <b>Local: </b>pt.ipp.isep.dei.project.model.geographicarea.GeographicAreaService.getTypeSensorByName || <b>Message: </b>The Sensor Type humiditywith the unit g/m3 does not yet exist in the Data Base. Please create the SensorType first.
</PRE></BODY></HTML>
<HTML><body background=https://wallpapercave.com/wp/wp2646233.jpg><HEAD></HEAD><BODY><PRE>
<b>FINE</b> || <b>Date: </b>13/05/2019 09:44:25.807 || <b>Local: </b>pt.ipp.isep.dei.project.model.geographicarea.GeographicAreaService.getTypeSensorByName || <b>Message: </b>The Sensor Type humiditywith the unit g/m3 does not yet exist in the Data Base. Please create the SensorType first.
</PRE></BODY></HTML>
<HTML><body background=https://wallpapercave.com/wp/wp2646233.jpg><HEAD></HEAD><BODY><PRE>
<b>FINE</b> || <b>Date: </b>13/05/2019 05:48:44.327 || <b>Local: </b>pt.ipp.isep.dei.project.model.geographicarea.GeographicAreaService.getTypeSensorByName || <b>Message: </b>The Sensor Type humiditywith the unit g/m3 does not yet exist in the Data Base. Please create the SensorType first.
</PRE></BODY></HTML>
<HTML><body background=https://wallpapercave.com/wp/wp2646233.jpg><HEAD></HEAD><BODY><PRE>
<b>FINE</b> || <b>Date: </b>13/05/2019 06:04:36.422 || <b>Local: </b>pt.ipp.isep.dei.project.model.geographicarea.GeographicAreaService.getTypeSensorByName || <b>Message: </b>The Sensor Type humiditywith the unit g/m3 does not yet exist in the Data Base. Please create the SensorType first.
</PRE></BODY></HTML>
<HTML><body background=https://wallpapercave.com/wp/wp2646233.jpg><HEAD></HEAD><BODY><PRE>
</PRE></BODY></HTML>
<HTML><body background=https://wallpapercave.com/wp/wp2646233.jpg><HEAD></HEAD><BODY><PRE>
</PRE></BODY></HTML>
